crven,rot
bijel,weiß,sr:bel
plav,blau/blond
žut,gelb
siv,grau
narančast,orange
naranča,Orange
smeđ,braun
bež,beige
zelen,grün
pink,pink
ružicast,rosa
ruža,Rose
crn,schwarz
tirkizni,türkis
ljubičast,violett
ljubica,Veilchen

siječanj,Januar,sr: januar
veljača,Februar,sr: februar
ožujak,März,sr: mart
travanj,April,sr: april
svibanj,Mai,sr: maj
lipanj,Juni,sr: jun/juni
srpanj,Juli,sr: jul/juli
kolovoz,August,sr: avgust
rujan,September,sr: septembar
listopad,Oktober,sr: oktobar
studeni,November,sr: novembar
prosinac,Dezember,sr: dezembar
list,Blatt
fallen,padati/pasti

programirač,Programmierer
programerka,Programmiererin
programirati,programmieren
kuhati,kochen
frizirati,frisieren,auch: frizirati se
liječiti,heilen,auch: izliječiti
liječenje,Heilung
informatika,Informatik

lopta,Ball
Gospodar prstenova,Der Herr der Ringe

č
ž
đ


